[
  {
    "model": "auth.user",
    "pk": 1,
    "fields": {
      "password": "pbkdf2_sha256$390000$niywRlvoGp499fjZFX3Ozx$gNvFoVi260xFDZojgrQWsKbPLQr8mSp9Xiwp8TiCWK0=",
      "last_login": "2023-04-25T15:20:10.220Z",
      "is_superuser": true,
      "username": "admin",
      "first_name": "Roman",
      "last_name": "",
      "email": "",
      "is_staff": true,
      "is_active": true,
      "date_joined": "2023-04-02T13:53:47Z",
      "groups": [],
      "user_permissions": []
    }
  },
  {
    "model": "auth.user",
    "pk": 2,
    "fields": {
      "password": "pbkdf2_sha256$390000$c9lKJ57xm85LXXMVcqv9cS$wAof6kg7JCWRa/GveJPGFGN0WxgFjHHroRo30uXmpKA=",
      "last_login": "2023-04-26T12:11:52.895Z",
      "is_superuser": false,
      "username": "sam",
      "first_name": "",
      "last_name": "",
      "email": "",
      "is_staff": true,
      "is_active": true,
      "date_joined": "2023-04-21T09:38:57Z",
      "groups": [
        4,
        5
      ],
      "user_permissions": [
        4,
        25,
        26,
        27,
        28
      ]
    }
  },
  {
    "model": "auth.user",
    "pk": 3,
    "fields": {
      "password": "pbkdf2_sha256$390000$vP02iH2MFKga19l5r7FUBH$VqrLPZfasbdpVIkbO1o3YU9QhDDMjVr1qVvBHEAWzME=",
      "last_login": "2023-04-21T12:35:11.200Z",
      "is_superuser": false,
      "username": "john",
      "first_name": "",
      "last_name": "",
      "email": "",
      "is_staff": false,
      "is_active": true,
      "date_joined": "2023-04-21T09:55:35Z",
      "groups": [],
      "user_permissions": [
        32
      ]
    }
  },
  {
    "model": "auth.user",
    "pk": 4,
    "fields": {
      "password": "pbkdf2_sha256$390000$UyVP5vI5OD5OsCgHHbFdPg$033/LkXARbAPfVBub5syctJ+0NboenoRJcm3/+yizpI=",
      "last_login": "2023-04-24T13:57:16.576Z",
      "is_superuser": false,
      "username": "nick",
      "first_name": "",
      "last_name": "",
      "email": "",
      "is_staff": false,
      "is_active": true,
      "date_joined": "2023-04-21T10:26:41.090Z",
      "groups": [
        4
      ],
      "user_permissions": [
        4
      ]
    }
  }
]
